{
    "fatal_error_suggestion": "The code failed because of a fatal error:\n\t{}.\n\nSome things to try:\na) Make sure Spark has enough available resources for Jupyter to create a Spark context.\nb) Contact your Jupyter administrator to make sure the Spark magics library is configured correctly.\nc) Restart the kernel.",
    "session_configs": {
        "executorMemory": "2048M",
        "conf": {
            "spark.master": "yarn-client"
        },
        "executorCores": 1,
        "numExecutors": 18,
        "proxyUser": "netID"
    },
    "kernel_python_credentials": {
        "url": "https://apache-spark-01.oit.duke.edu:8443/gateway/basic/livy/v1",
        "password": "password",
        "username": "netID"
    },
    "wait_for_idle_timeout_seconds": 15,
    "livy_session_startup_timeout_seconds": 60,
    "statement_sleep_seconds": 2,
    "use_auto_viz": true,
    "logging_config": {
        "loggers": {
            "magicsLogger": {
                "level": "INFO",
                "propagate": 0,
                "handlers": [
                    "magicsHandler"
                ]
            }
        },
        "version": 1,
        "formatters": {
            "magicsFormatter": {
                "format": "%(asctime)s\t%(levelname)s\t%(message)s",
                "datefmt": ""
            }
        },
        "handlers": {
            "magicsHandler": {
                "formatter": "magicsFormatter",
                "home_path": "~/.sparkmagic",
                "class": "hdijupyterutils.filehandler.MagicsFileHandler"
            }
        }
    },
    "max_results_sql": 2500,
    "kernel_scala_credentials": {
        "url": "https://apache-spark-01.oit.duke.edu:8443/gateway/basic/livy/v1",
        "password": "password",
        "username": "netID"
    },
    "ignore_ssl_errors": false,
    "server_extension_default_kernel_name": "pysparkkernel",
    "status_sleep_seconds": 2,
    "livy_server_heartbeat_timeout_seconds": 0,
    "heartbeat_retry_seconds": 10,
    "heartbeat_refresh_seconds": 30,
    "pyspark_dataframe_encoding": "utf-8"
}
